2016/06/01 * guld pre-founding contributions
    meroje:Assets                              100 GULD
    meroje:Income:guld                        -100 GULD
    guld:Liabilities                         -100 GULD
    guld:Equity:meroje                          100 GULD
