2016/06/01 * guld pre-founding contributions
    thomas-mcdonald:Assets                              100 GULD
    thomas-mcdonald:Income:guld                        -100 GULD
    guld:Liabilities                         -100 GULD
    guld:Equity:thomas-mcdonald                          100 GULD
