2016/06/01 * guld pre-founding contributions
    paulbdavis:Assets                              100 GULD
    paulbdavis:Income:guld                        -100 GULD
    guld:Liabilities                         -100 GULD
    guld:Equity:paulbdavis                          100 GULD
