2016/06/01 * guld pre-founding contributions
    iristyle:Assets                              100 GULD
    iristyle:Income:guld                        -100 GULD
    guld:Liabilities                         -100 GULD
    guld:Equity:iristyle                          100 GULD
