2016/06/01 * guld pre-founding contributions
    ajfranzoia:Assets                              100 GULD
    ajfranzoia:Income:guld                        -100 GULD
    guld:Liabilities                         -100 GULD
    guld:Equity:ajfranzoia                          100 GULD
