2016/06/01 * guld pre-founding contributions
    asifrc:Assets                              100 GULD
    asifrc:Income:guld                        -100 GULD
    guld:Liabilities                         -100 GULD
    guld:Equity:asifrc                          100 GULD
