2016/06/01 * guld pre-founding contributions
    alexyursha:Assets                              100 GULD
    alexyursha:Income:guld                        -100 GULD
    guld:Liabilities                         -100 GULD
    guld:Equity:alexyursha                          100 GULD
