2016/06/01 * guld pre-founding contributions
    futagoza:Assets                              100 GULD
    futagoza:Income:guld                        -100 GULD
    guld:Liabilities                         -100 GULD
    guld:Equity:futagoza                          100 GULD
