2016/06/01 * guld pre-founding contributions
    isiahmeadows:Assets                              100 GULD
    isiahmeadows:Income:guld                        -100 GULD
    guld:Liabilities                         -100 GULD
    guld:Equity:isiahmeadows                          100 GULD
