2018/04/07 * register group
    ; timestamp: 1523161085
    rukie:Assets   -0.1 GULD
    rukie:Expenses:guld:register   0.1 GULD
    guld:Liabilities   0.1 GULD
    guld:Income:register:group:gg:rukie   -0.1 GULD
