2016/06/01 * guld pre-founding contributions
    spiffytech:Assets                              100 GULD
    spiffytech:Income:guld                        -100 GULD
    guld:Liabilities                         -100 GULD
    guld:Equity:spiffytech                          100 GULD
