2016/06/01 * guld pre-founding contributions
    mafintosh:Assets                              100 GULD
    mafintosh:Income:guld                        -100 GULD
    guld:Liabilities                         -100 GULD
    guld:Equity:mafintosh                          100 GULD
