2016/06/01 * guld pre-founding contributions
    daleharvey:Assets                              100 GULD
    daleharvey:Income:guld                        -100 GULD
    guld:Liabilities                         -100 GULD
    guld:Equity:daleharvey                          100 GULD
