2016/06/01 * guld pre-founding contributions
    thomasconner:Assets                              100 GULD
    thomasconner:Income:guld                        -100 GULD
    guld:Liabilities                         -100 GULD
    guld:Equity:thomasconner                          100 GULD
