2016/06/01 * guld pre-founding contributions
    taichi:Assets                              100 GULD
    taichi:Income:guld                        -100 GULD
    guld:Liabilities                         -100 GULD
    guld:Equity:taichi                          100 GULD
